<?xml version="1.0" encoding="utf-8"?>
<!-- Generator: Adobe Illustrator 25.0.0, SVG Export Plug-In . SVG Version: 6.00 Build 0)  -->
<svg version="1.1" id="Layer_1" xmlns="http://www.w3.org/2000/svg" xmlns:xlink="http://www.w3.org/1999/xlink" x="0px" y="0px"
	 viewBox="0 0 87.4 58.8" style="enable-background:new 0 0 87.4 58.8;" xml:space="preserve">
<style type="text/css">
	.st0{fill-rule:evenodd;clip-rule:evenodd;fill:#EDB6B0;}
</style>
<path class="st0" d="M46.7,38.5c0,11.7,9.9,21.1,21.8,20.2c10-0.7,18.2-8.8,18.9-18.8c0.6-8.9-4.5-16.6-12-20
	c-5.1-2.3-8.3-7.3-8.3-12.8V2.6c0-2.3-2.7-3.5-4.4-1.9C45.6,16.8,46.7,38.5,46.7,38.5"/>
<path class="st0" d="M0,38.5c0,11.7,9.9,21.1,21.8,20.2c10-0.7,18.2-8.8,18.9-18.8c0.6-8.9-4.5-16.6-12-20
	c-5.1-2.3-8.3-7.3-8.3-12.8l0-4.5c0-2.3-2.7-3.5-4.4-1.9C-1.1,16.8,0,38.5,0,38.5"/>
</svg>
